Executing on file with codename '005' ["Presentation Error\n"] (0.0000)
Executing on file with codename '020' ["Execution killed with signal 11 (could be triggered by violating memory limits)"] (0.0000)
Executing on file with codename '004' ["Presentation Error\n"] (0.0000)
Executing on file with codename '003' ["Presentation Error\n"] (0.0000)
Executing on file with codename '000' ["Wrong Answer\n"] (0.0000)
Executing on file with codename '019' ["Execution killed with signal 11 (could be triggered by violating memory limits)"] (0.0000)
Executing on file with codename '018' ["Execution killed with signal 11 (could be triggered by violating memory limits)"] (0.0000)
Executing on file with codename '017' ["Execution killed with signal 11 (could be triggered by violating memory limits)"] (0.0000)
Executing on file with codename '016' ["Execution killed with signal 11 (could be triggered by violating memory limits)"] (0.0000)
Executing on file with codename '015' ["Execution killed with signal 11 (could be triggered by violating memory limits)"] (0.0000)
Executing on file with codename '014' ["Execution killed with signal 11 (could be triggered by violating memory limits)"] (0.0000)
Executing on file with codename '013' ["Execution killed with signal 11 (could be triggered by violating memory limits)"] (0.0000)
Executing on file with codename '012' ["Execution killed with signal 11 (could be triggered by violating memory limits)"] (0.0000)
Executing on file with codename '011' ["Execution killed with signal 11 (could be triggered by violating memory limits)"] (0.0000)
Executing on file with codename '010' ["Presentation Error\n"] (0.0000)
Executing on file with codename '009' ["Presentation Error\n"] (0.0000)
Executing on file with codename '008' ["Presentation Error\n"] (0.0000)
Executing on file with codename '007' ["Presentation Error\n"] (0.0000)
Executing on file with codename '006' ["Presentation Error\n"] (0.0000)
Executing on file with codename '002' ["Presentation Error\n"] (0.0000)
Executing on file with codename '001' ["Presentation Error\n"] (0.0000)
Score: 0.000000
