Executing on file with codename '020' ["Execution failed because the return code was nonzero"] (0.0000)
Executing on file with codename '019' ["Execution failed because the return code was nonzero"] (0.0000)
Executing on file with codename '005' ["Execution failed because the return code was nonzero"] (0.0000)
Executing on file with codename '003' ["Execution failed because the return code was nonzero"] (0.0000)
Executing on file with codename '007' ["Execution failed because the return code was nonzero"] (0.0000)
Executing on file with codename '004' ["Execution failed because the return code was nonzero"] (0.0000)
Executing on file with codename '018' ["Execution failed because the return code was nonzero"] (0.0000)
Executing on file with codename '017' ["Execution failed because the return code was nonzero"] (0.0000)
Executing on file with codename '001' ["Execution failed because the return code was nonzero"] (0.0000)
Executing on file with codename '016' ["Execution failed because the return code was nonzero"] (0.0000)
Executing on file with codename '000' ["Execution failed because the return code was nonzero"] (0.0000)
Executing on file with codename '002' ["Execution failed because the return code was nonzero"] (0.0000)
Executing on file with codename '015' ["Execution failed because the return code was nonzero"] (0.0000)
Executing on file with codename '014' ["Execution failed because the return code was nonzero"] (0.0000)
Executing on file with codename '013' ["Execution failed because the return code was nonzero"] (0.0000)
Executing on file with codename '012' ["Execution failed because the return code was nonzero"] (0.0000)
Executing on file with codename '011' ["Execution failed because the return code was nonzero"] (0.0000)
Executing on file with codename '010' ["Execution failed because the return code was nonzero"] (0.0000)
Executing on file with codename '009' ["Execution failed because the return code was nonzero"] (0.0000)
Executing on file with codename '008' ["Execution failed because the return code was nonzero"] (0.0000)
Executing on file with codename '006' ["Execution failed because the return code was nonzero"] (0.0000)
Score: 0.000000
