Executing on file with codename '050' ["Execution timed out"] (0.0000)
Executing on file with codename '049' ["Execution timed out"] (0.0000)
Executing on file with codename '058' ["Execution killed with signal 11 (could be triggered by violating memory limits)"] (0.0000)
Executing on file with codename '045' ["Execution timed out"] (0.0000)
Executing on file with codename '057' ["Execution killed with signal 11 (could be triggered by violating memory limits)"] (0.0000)
Executing on file with codename '056' ["Execution killed with signal 11 (could be triggered by violating memory limits)"] (0.0000)
Executing on file with codename '054' ["Execution killed with signal 11 (could be triggered by violating memory limits)"] (0.0000)
Executing on file with codename '052' ["Execution killed with signal 11 (could be triggered by violating memory limits)"] (0.0000)
Executing on file with codename '048' ["Execution timed out"] (0.0000)
Executing on file with codename '047' ["Execution timed out"] (0.0000)
Executing on file with codename '046' ["OK\n"] (1.0000)
Executing on file with codename '044' ["Wrong Answer\n"] (0.0000)
Executing on file with codename '059' ["Execution killed with signal 11 (could be triggered by violating memory limits)"] (0.0000)
Executing on file with codename '053' ["Execution killed with signal 11 (could be triggered by violating memory limits)"] (0.0000)
Executing on file with codename '055' ["Execution killed with signal 11 (could be triggered by violating memory limits)"] (0.0000)
Executing on file with codename '001' ["OK\n"] (1.0000)
Executing on file with codename '051' ["OK\n"] (1.0000)
Executing on file with codename '000' ["OK\n"] (1.0000)
Executing on file with codename '043' ["Wrong Answer\n"] (0.0000)
Executing on file with codename '002' ["OK\n"] (1.0000)
Executing on file with codename '042' ["Wrong Answer\n"] (0.0000)
Executing on file with codename '041' ["Wrong Answer\n"] (0.0000)
Executing on file with codename '040' ["Wrong Answer\n"] (0.0000)
Executing on file with codename '038' ["Wrong Answer\n"] (0.0000)
Executing on file with codename '039' ["Wrong Answer\n"] (0.0000)
Executing on file with codename '036' ["OK\n"] (1.0000)
Executing on file with codename '037' ["Wrong Answer\n"] (0.0000)
Executing on file with codename '035' ["OK\n"] (1.0000)
Executing on file with codename '034' ["OK\n"] (1.0000)
Executing on file with codename '030' ["OK\n"] (1.0000)
Executing on file with codename '033' ["OK\n"] (1.0000)
Executing on file with codename '012' ["OK\n"] (1.0000)
Executing on file with codename '013' ["OK\n"] (1.0000)
Executing on file with codename '014' ["OK\n"] (1.0000)
Executing on file with codename '015' ["OK\n"] (1.0000)
Executing on file with codename '016' ["OK\n"] (1.0000)
Executing on file with codename '017' ["OK\n"] (1.0000)
Executing on file with codename '018' ["OK\n"] (1.0000)
Executing on file with codename '019' ["OK\n"] (1.0000)
Executing on file with codename '020' ["OK\n"] (1.0000)
Executing on file with codename '008' ["OK\n"] (1.0000)
Executing on file with codename '021' ["OK\n"] (1.0000)
Executing on file with codename '006' ["OK\n"] (1.0000)
Executing on file with codename '022' ["OK\n"] (1.0000)
Executing on file with codename '005' ["OK\n"] (1.0000)
Executing on file with codename '023' ["OK\n"] (1.0000)
Executing on file with codename '024' ["OK\n"] (1.0000)
Executing on file with codename '025' ["OK\n"] (1.0000)
Executing on file with codename '004' ["OK\n"] (1.0000)
Executing on file with codename '003' ["OK\n"] (1.0000)
Executing on file with codename '026' ["OK\n"] (1.0000)
Executing on file with codename '027' ["OK\n"] (1.0000)
Executing on file with codename '028' ["OK\n"] (1.0000)
Executing on file with codename '029' ["OK\n"] (1.0000)
Executing on file with codename '031' ["OK\n"] (1.0000)
Executing on file with codename '032' ["OK\n"] (1.0000)
Executing on file with codename '011' ["OK\n"] (1.0000)
Executing on file with codename '010' ["OK\n"] (1.0000)
Executing on file with codename '009' ["OK\n"] (1.0000)
Executing on file with codename '007' ["OK\n"] (1.0000)
Score: 39.000000
