Executing on file with codename '039' ["Presentation Error\n"] (0.0000)
Executing on file with codename '038' ["Presentation Error\n"] (0.0000)
Executing on file with codename '037' ["Presentation Error\n"] (0.0000)
Executing on file with codename '036' ["Presentation Error\n"] (0.0000)
Executing on file with codename '035' ["Presentation Error\n"] (0.0000)
Executing on file with codename '034' ["Presentation Error\n"] (0.0000)
Executing on file with codename '033' ["Presentation Error\n"] (0.0000)
Executing on file with codename '032' ["Presentation Error\n"] (0.0000)
Executing on file with codename '031' ["Presentation Error\n"] (0.0000)
Executing on file with codename '030' ["Presentation Error\n"] (0.0000)
Executing on file with codename '029' ["Presentation Error\n"] (0.0000)
Executing on file with codename '028' ["Presentation Error\n"] (0.0000)
Executing on file with codename '027' ["Presentation Error\n"] (0.0000)
Executing on file with codename '026' ["Presentation Error\n"] (0.0000)
Executing on file with codename '025' ["Presentation Error\n"] (0.0000)
Executing on file with codename '024' ["Presentation Error\n"] (0.0000)
Executing on file with codename '023' ["Presentation Error\n"] (0.0000)
Executing on file with codename '006' ["Presentation Error\n"] (0.0000)
Executing on file with codename '003' ["Presentation Error\n"] (0.0000)
Executing on file with codename '005' ["Presentation Error\n"] (0.0000)
Executing on file with codename '022' ["Presentation Error\n"] (0.0000)
Executing on file with codename '007' ["Presentation Error\n"] (0.0000)
Executing on file with codename '021' ["Presentation Error\n"] (0.0000)
Executing on file with codename '004' ["Presentation Error\n"] (0.0000)
Executing on file with codename '000' ["OK\n"] (1.0000)
Executing on file with codename '020' ["Presentation Error\n"] (0.0000)
Executing on file with codename '019' ["Presentation Error\n"] (0.0000)
Executing on file with codename '001' ["OK\n"] (1.0000)
Executing on file with codename '018' ["Presentation Error\n"] (0.0000)
Executing on file with codename '017' ["Presentation Error\n"] (0.0000)
Executing on file with codename '016' ["Presentation Error\n"] (0.0000)
Executing on file with codename '015' ["Presentation Error\n"] (0.0000)
Executing on file with codename '014' ["Presentation Error\n"] (0.0000)
Executing on file with codename '013' ["Presentation Error\n"] (0.0000)
Executing on file with codename '012' ["Presentation Error\n"] (0.0000)
Executing on file with codename '011' ["Presentation Error\n"] (0.0000)
Executing on file with codename '010' ["Presentation Error\n"] (0.0000)
Executing on file with codename '009' ["Presentation Error\n"] (0.0000)
Executing on file with codename '008' ["Presentation Error\n"] (0.0000)
Executing on file with codename '002' ["OK\n"] (1.0000)
Score: 3.000000
