Executing on file with codename '039' ["Wrong Answer\n"] (0.0000)
Executing on file with codename '038' ["Wrong Answer\n"] (0.0000)
Executing on file with codename '037' ["OK\n"] (1.0000)
Executing on file with codename '035' ["Wrong Answer\n"] (0.0000)
Executing on file with codename '036' ["Wrong Answer\n"] (0.0000)
Executing on file with codename '034' ["Wrong Answer\n"] (0.0000)
Executing on file with codename '033' ["Wrong Answer\n"] (0.0000)
Executing on file with codename '032' ["Wrong Answer\n"] (0.0000)
Executing on file with codename '031' ["Wrong Answer\n"] (0.0000)
Executing on file with codename '030' ["Wrong Answer\n"] (0.0000)
Executing on file with codename '028' ["Wrong Answer\n"] (0.0000)
Executing on file with codename '029' ["Wrong Answer\n"] (0.0000)
Executing on file with codename '027' ["Wrong Answer\n"] (0.0000)
Executing on file with codename '026' ["Wrong Answer\n"] (0.0000)
Executing on file with codename '025' ["Wrong Answer\n"] (0.0000)
Executing on file with codename '024' ["Wrong Answer\n"] (0.0000)
Executing on file with codename '023' ["Wrong Answer\n"] (0.0000)
Executing on file with codename '022' ["Wrong Answer\n"] (0.0000)
Executing on file with codename '021' ["Wrong Answer\n"] (0.0000)
Executing on file with codename '019' ["Execution killed with signal 11 (could be triggered by violating memory limits)"] (0.0000)
Executing on file with codename '018' ["Execution killed with signal 11 (could be triggered by violating memory limits)"] (0.0000)
Executing on file with codename '003' ["Execution killed with signal 11 (could be triggered by violating memory limits)"] (0.0000)
Executing on file with codename '017' ["Execution killed with signal 11 (could be triggered by violating memory limits)"] (0.0000)
Executing on file with codename '020' ["OK\n"] (1.0000)
Executing on file with codename '016' ["Execution killed with signal 11 (could be triggered by violating memory limits)"] (0.0000)
Executing on file with codename '015' ["Execution killed with signal 11 (could be triggered by violating memory limits)"] (0.0000)
Executing on file with codename '004' ["Execution killed with signal 11 (could be triggered by violating memory limits)"] (0.0000)
Executing on file with codename '005' ["Execution killed with signal 11 (could be triggered by violating memory limits)"] (0.0000)
Executing on file with codename '014' ["Execution killed with signal 11 (could be triggered by violating memory limits)"] (0.0000)
Executing on file with codename '007' ["Execution killed with signal 11 (could be triggered by violating memory limits)"] (0.0000)
Executing on file with codename '013' ["Execution killed with signal 11 (could be triggered by violating memory limits)"] (0.0000)
Executing on file with codename '002' ["Execution killed with signal 11 (could be triggered by violating memory limits)"] (0.0000)
Executing on file with codename '012' ["Execution killed with signal 11 (could be triggered by violating memory limits)"] (0.0000)
Executing on file with codename '001' ["OK\n"] (1.0000)
Executing on file with codename '000' ["Execution killed with signal 11 (could be triggered by violating memory limits)"] (0.0000)
Executing on file with codename '011' ["Execution killed with signal 11 (could be triggered by violating memory limits)"] (0.0000)
Executing on file with codename '010' ["Execution killed with signal 11 (could be triggered by violating memory limits)"] (0.0000)
Executing on file with codename '009' ["Execution killed with signal 11 (could be triggered by violating memory limits)"] (0.0000)
Executing on file with codename '008' ["Execution killed with signal 11 (could be triggered by violating memory limits)"] (0.0000)
Executing on file with codename '006' ["Execution killed with signal 11 (could be triggered by violating memory limits)"] (0.0000)
Score: 3.000000
