Executing on file with codename '027' ["Execution timed out"] (0.0000)
Executing on file with codename '026' ["Execution timed out"] (0.0000)
Executing on file with codename '025' ["Execution timed out"] (0.0000)
Executing on file with codename '024' ["Execution timed out"] (0.0000)
Executing on file with codename '023' ["Execution timed out"] (0.0000)
Executing on file with codename '022' ["Execution timed out"] (0.0000)
Executing on file with codename '029' ["Wrong Answer\n"] (0.0000)
Executing on file with codename '028' ["Wrong Answer\n"] (0.0000)
Executing on file with codename '006' ["Execution timed out"] (0.0000)
Executing on file with codename '004' ["Execution timed out"] (0.0000)
Executing on file with codename '003' ["Execution timed out"] (0.0000)
Executing on file with codename '005' ["Execution timed out"] (0.0000)
Executing on file with codename '007' ["OK\n"] (1.0000)
Executing on file with codename '021' ["OK\n"] (1.0000)
Executing on file with codename '020' ["OK\n"] (1.0000)
Executing on file with codename '019' ["Wrong Answer\n"] (0.0000)
Executing on file with codename '018' ["Wrong Answer\n"] (0.0000)
Executing on file with codename '017' ["Wrong Answer\n"] (0.0000)
Executing on file with codename '001' ["OK\n"] (1.0000)
Executing on file with codename '016' ["Wrong Answer\n"] (0.0000)
Executing on file with codename '000' ["Wrong Answer\n"] (0.0000)
Executing on file with codename '015' ["Wrong Answer\n"] (0.0000)
Executing on file with codename '014' ["Wrong Answer\n"] (0.0000)
Executing on file with codename '013' ["Wrong Answer\n"] (0.0000)
Executing on file with codename '012' ["Wrong Answer\n"] (0.0000)
Executing on file with codename '011' ["Wrong Answer\n"] (0.0000)
Executing on file with codename '010' ["Wrong Answer\n"] (0.0000)
Executing on file with codename '009' ["Execution timed out"] (0.0000)
Executing on file with codename '008' ["OK\n"] (1.0000)
Executing on file with codename '002' ["Wrong Answer\n"] (0.0000)
Score: 5.000000
