Executing on file with codename '018' ["Execution timed out"] (0.0000)
Executing on file with codename '016' ["Execution timed out"] (0.0000)
Executing on file with codename '017' ["Execution timed out"] (0.0000)
Executing on file with codename '015' ["Execution timed out"] (0.0000)
Executing on file with codename '019' ["Execution timed out"] (0.0000)
Executing on file with codename '029' ["Presentation Error\n"] (0.0000)
Executing on file with codename '028' ["Presentation Error\n"] (0.0000)
Executing on file with codename '027' ["Presentation Error\n"] (0.0000)
Executing on file with codename '026' ["Presentation Error\n"] (0.0000)
Executing on file with codename '025' ["Presentation Error\n"] (0.0000)
Executing on file with codename '024' ["Presentation Error\n"] (0.0000)
Executing on file with codename '023' ["Presentation Error\n"] (0.0000)
Executing on file with codename '022' ["Presentation Error\n"] (0.0000)
Executing on file with codename '021' ["Presentation Error\n"] (0.0000)
Executing on file with codename '020' ["Presentation Error\n"] (0.0000)
Executing on file with codename '014' ["Presentation Error\n"] (0.0000)
Executing on file with codename '009' ["Presentation Error\n"] (0.0000)
Executing on file with codename '013' ["Presentation Error\n"] (0.0000)
Executing on file with codename '012' ["Presentation Error\n"] (0.0000)
Executing on file with codename '011' ["Presentation Error\n"] (0.0000)
Executing on file with codename '010' ["Presentation Error\n"] (0.0000)
Executing on file with codename '004' ["Presentation Error\n"] (0.0000)
Executing on file with codename '008' ["Presentation Error\n"] (0.0000)
Executing on file with codename '005' ["Presentation Error\n"] (0.0000)
Executing on file with codename '003' ["Presentation Error\n"] (0.0000)
Executing on file with codename '006' ["Presentation Error\n"] (0.0000)
Executing on file with codename '007' ["Presentation Error\n"] (0.0000)
Executing on file with codename '002' ["Presentation Error\n"] (0.0000)
Executing on file with codename '001' ["Presentation Error\n"] (0.0000)
Executing on file with codename '000' ["Presentation Error\n"] (0.0000)
Score: 0.000000
