Executing on file with codename '039' ["Execution timed out"] (0.0000)
Executing on file with codename '038' ["Execution timed out"] (0.0000)
Executing on file with codename '037' ["Execution timed out"] (0.0000)
Executing on file with codename '036' ["Execution timed out"] (0.0000)
Executing on file with codename '035' ["Execution timed out"] (0.0000)
Executing on file with codename '034' ["Execution timed out"] (0.0000)
Executing on file with codename '033' ["Execution timed out"] (0.0000)
Executing on file with codename '032' ["Execution timed out"] (0.0000)
Executing on file with codename '031' ["Execution timed out"] (0.0000)
Executing on file with codename '030' ["Execution timed out"] (0.0000)
Executing on file with codename '029' ["Wrong Answer\n"] (0.0000)
Executing on file with codename '028' ["Wrong Answer\n"] (0.0000)
Executing on file with codename '027' ["Wrong Answer\n"] (0.0000)
Executing on file with codename '026' ["Wrong Answer\n"] (0.0000)
Executing on file with codename '025' ["OK\n"] (1.0000)
Executing on file with codename '024' ["OK\n"] (1.0000)
Executing on file with codename '023' ["OK\n"] (1.0000)
Executing on file with codename '022' ["Wrong Answer\n"] (0.0000)
Executing on file with codename '021' ["Wrong Answer\n"] (0.0000)
Executing on file with codename '020' ["Wrong Answer\n"] (0.0000)
Executing on file with codename '019' ["Wrong Answer\n"] (0.0000)
Executing on file with codename '018' ["Wrong Answer\n"] (0.0000)
Executing on file with codename '017' ["Wrong Answer\n"] (0.0000)
Executing on file with codename '016' ["Wrong Answer\n"] (0.0000)
Executing on file with codename '015' ["Wrong Answer\n"] (0.0000)
Executing on file with codename '014' ["OK\n"] (1.0000)
Executing on file with codename '013' ["OK\n"] (1.0000)
Executing on file with codename '001' ["OK\n"] (1.0000)
Executing on file with codename '007' ["Wrong Answer\n"] (0.0000)
Executing on file with codename '002' ["OK\n"] (1.0000)
Executing on file with codename '005' ["OK\n"] (1.0000)
Executing on file with codename '003' ["Wrong Answer\n"] (0.0000)
Executing on file with codename '004' ["Wrong Answer\n"] (0.0000)
Executing on file with codename '000' ["OK\n"] (1.0000)
Executing on file with codename '012' ["Wrong Answer\n"] (0.0000)
Executing on file with codename '011' ["OK\n"] (1.0000)
Executing on file with codename '010' ["Wrong Answer\n"] (0.0000)
Executing on file with codename '009' ["OK\n"] (1.0000)
Executing on file with codename '008' ["Wrong Answer\n"] (0.0000)
Executing on file with codename '006' ["Wrong Answer\n"] (0.0000)
Score: 11.000000
