Executing on file with codename '021' ["Execution killed with signal 11 (could be triggered by violating memory limits)"] (0.0000)
Executing on file with codename '027' ["Wrong Answer\n"] (0.0000)
Executing on file with codename '026' ["Wrong Answer\n"] (0.0000)
Executing on file with codename '029' ["Execution killed with signal 11 (could be triggered by violating memory limits)"] (0.0000)
Executing on file with codename '025' ["Wrong Answer\n"] (0.0000)
Executing on file with codename '028' ["Execution killed with signal 11 (could be triggered by violating memory limits)"] (0.0000)
Executing on file with codename '024' ["Wrong Answer\n"] (0.0000)
Executing on file with codename '023' ["Wrong Answer\n"] (0.0000)
Executing on file with codename '018' ["OK\n"] (1.0000)
Executing on file with codename '022' ["Execution killed with signal 11 (could be triggered by violating memory limits)"] (0.0000)
Executing on file with codename '009' ["Execution killed with signal 11 (could be triggered by violating memory limits)"] (0.0000)
Executing on file with codename '007' ["Execution killed with signal 11 (could be triggered by violating memory limits)"] (0.0000)
Executing on file with codename '020' ["Execution killed with signal 11 (could be triggered by violating memory limits)"] (0.0000)
Executing on file with codename '019' ["OK\n"] (1.0000)
Executing on file with codename '017' ["OK\n"] (1.0000)
Executing on file with codename '016' ["OK\n"] (1.0000)
Executing on file with codename '005' ["Wrong Answer\n"] (0.0000)
Executing on file with codename '004' ["Wrong Answer\n"] (0.0000)
Executing on file with codename '015' ["OK\n"] (1.0000)
Executing on file with codename '012' ["OK\n"] (1.0000)
Executing on file with codename '014' ["OK\n"] (1.0000)
Executing on file with codename '002' ["OK\n"] (1.0000)
Executing on file with codename '013' ["OK\n"] (1.0000)
Executing on file with codename '011' ["OK\n"] (1.0000)
Executing on file with codename '000' ["OK\n"] (1.0000)
Executing on file with codename '010' ["OK\n"] (1.0000)
Executing on file with codename '008' ["Execution killed with signal 11 (could be triggered by violating memory limits)"] (0.0000)
Executing on file with codename '006' ["Wrong Answer\n"] (0.0000)
Executing on file with codename '003' ["Wrong Answer\n"] (0.0000)
Executing on file with codename '001' ["OK\n"] (1.0000)
Score: 13.000000
