Executing on file with codename '022' ["Execution timed out"] (0.0000)
Executing on file with codename '023' ["Execution timed out"] (0.0000)
Executing on file with codename '029' ["OK\n"] (1.0000)
Executing on file with codename '026' ["OK\n"] (1.0000)
Executing on file with codename '027' ["OK\n"] (1.0000)
Executing on file with codename '025' ["OK\n"] (1.0000)
Executing on file with codename '024' ["OK\n"] (1.0000)
Executing on file with codename '028' ["OK\n"] (1.0000)
Executing on file with codename '007' ["OK\n"] (1.0000)
Executing on file with codename '021' ["OK\n"] (1.0000)
Executing on file with codename '020' ["OK\n"] (1.0000)
Executing on file with codename '019' ["OK\n"] (1.0000)
Executing on file with codename '005' ["OK\n"] (1.0000)
Executing on file with codename '006' ["OK\n"] (1.0000)
Executing on file with codename '004' ["OK\n"] (1.0000)
Executing on file with codename '018' ["OK\n"] (1.0000)
Executing on file with codename '017' ["OK\n"] (1.0000)
Executing on file with codename '002' ["OK\n"] (1.0000)
Executing on file with codename '001' ["OK\n"] (1.0000)
Executing on file with codename '000' ["OK\n"] (1.0000)
Executing on file with codename '016' ["OK\n"] (1.0000)
Executing on file with codename '015' ["OK\n"] (1.0000)
Executing on file with codename '014' ["OK\n"] (1.0000)
Executing on file with codename '013' ["OK\n"] (1.0000)
Executing on file with codename '012' ["OK\n"] (1.0000)
Executing on file with codename '011' ["OK\n"] (1.0000)
Executing on file with codename '010' ["OK\n"] (1.0000)
Executing on file with codename '009' ["OK\n"] (1.0000)
Executing on file with codename '008' ["OK\n"] (1.0000)
Executing on file with codename '003' ["OK\n"] (1.0000)
Score: 28.000000
