Executing on file with codename '036' ["Execution timed out"] (0.0000)
Executing on file with codename '035' ["Execution timed out"] (0.0000)
Executing on file with codename '034' ["Execution timed out"] (0.0000)
Executing on file with codename '039' ["Execution killed with signal 11 (could be triggered by violating memory limits)"] (0.0000)
Executing on file with codename '038' ["Execution killed with signal 11 (could be triggered by violating memory limits)"] (0.0000)
Executing on file with codename '037' ["Execution killed with signal 11 (could be triggered by violating memory limits)"] (0.0000)
Executing on file with codename '033' ["Execution killed with signal 11 (could be triggered by violating memory limits)"] (0.0000)
Executing on file with codename '031' ["Execution timed out"] (0.0000)
Executing on file with codename '030' ["Execution timed out"] (0.0000)
Executing on file with codename '032' ["Execution killed with signal 11 (could be triggered by violating memory limits)"] (0.0000)
Executing on file with codename '029' ["Execution timed out"] (0.0000)
Executing on file with codename '028' ["Execution timed out"] (0.0000)
Executing on file with codename '027' ["Execution timed out"] (0.0000)
Executing on file with codename '026' ["Execution timed out"] (0.0000)
Executing on file with codename '025' ["Execution timed out"] (0.0000)
Executing on file with codename '024' ["Execution timed out"] (0.0000)
Executing on file with codename '023' ["Execution timed out"] (0.0000)
Executing on file with codename '022' ["Execution timed out"] (0.0000)
Executing on file with codename '021' ["Execution timed out"] (0.0000)
Executing on file with codename '020' ["Execution timed out"] (0.0000)
Executing on file with codename '019' ["Execution timed out"] (0.0000)
Executing on file with codename '018' ["Execution timed out"] (0.0000)
Executing on file with codename '017' ["Execution timed out"] (0.0000)
Executing on file with codename '016' ["Execution timed out"] (0.0000)
Executing on file with codename '004' ["OK\n"] (1.0000)
Executing on file with codename '007' ["OK\n"] (1.0000)
Executing on file with codename '003' ["OK\n"] (1.0000)
Executing on file with codename '005' ["OK\n"] (1.0000)
Executing on file with codename '002' ["OK\n"] (1.0000)
Executing on file with codename '000' ["OK\n"] (1.0000)
Executing on file with codename '001' ["OK\n"] (1.0000)
Executing on file with codename '015' ["OK\n"] (1.0000)
Executing on file with codename '014' ["Wrong Answer\n"] (0.0000)
Executing on file with codename '013' ["OK\n"] (1.0000)
Executing on file with codename '012' ["Wrong Answer\n"] (0.0000)
Executing on file with codename '011' ["OK\n"] (1.0000)
Executing on file with codename '010' ["OK\n"] (1.0000)
Executing on file with codename '009' ["OK\n"] (1.0000)
Executing on file with codename '008' ["OK\n"] (1.0000)
Executing on file with codename '006' ["OK\n"] (1.0000)
Score: 14.000000
