Executing on file with codename '020' ["Execution timed out"] (0.0000)
Executing on file with codename '019' ["Execution timed out"] (0.0000)
Executing on file with codename '018' ["Execution timed out"] (0.0000)
Executing on file with codename '017' ["Execution timed out"] (0.0000)
Executing on file with codename '016' ["Execution timed out"] (0.0000)
Executing on file with codename '015' ["Execution timed out"] (0.0000)
Executing on file with codename '012' ["Execution timed out"] (0.0000)
Executing on file with codename '011' ["Execution timed out"] (0.0000)
Executing on file with codename '014' ["Execution timed out"] (0.0000)
Executing on file with codename '013' ["Execution timed out"] (0.0000)
Executing on file with codename '010' ["Presentation Error\n"] (0.0000)
Executing on file with codename '009' ["Wrong Answer\n"] (0.0000)
Executing on file with codename '007' ["Wrong Answer\n"] (0.0000)
Executing on file with codename '008' ["OK\n"] (1.0000)
Executing on file with codename '006' ["Presentation Error\n"] (0.0000)
Executing on file with codename '005' ["Wrong Answer\n"] (0.0000)
Executing on file with codename '004' ["Presentation Error\n"] (0.0000)
Executing on file with codename '003' ["Presentation Error\n"] (0.0000)
Executing on file with codename '002' ["Presentation Error\n"] (0.0000)
Executing on file with codename '001' ["Presentation Error\n"] (0.0000)
Executing on file with codename '000' ["OK\n"] (1.0000)
Score: 2.000000
