Executing on file with codename '037' ["Wrong Output Format\n"] (0.0000)
Executing on file with codename '029' ["Execution timed out"] (0.0000)
Executing on file with codename '035' ["Wrong Output Format\n"] (0.0000)
Executing on file with codename '039' ["Execution killed with signal 11 (could be triggered by violating memory limits)"] (0.0000)
Executing on file with codename '036' ["Presentation Error\n"] (0.0000)
Executing on file with codename '038' ["Execution killed with signal 11 (could be triggered by violating memory limits)"] (0.0000)
Executing on file with codename '034' ["Wrong Output Format\n"] (0.0000)
Executing on file with codename '033' ["Wrong Output Format\n"] (0.0000)
Executing on file with codename '032' ["Wrong Output Format\n"] (0.0000)
Executing on file with codename '030' ["Wrong Output Format\n"] (0.0000)
Executing on file with codename '031' ["Wrong Output Format\n"] (0.0000)
Executing on file with codename '028' ["Wrong Output Format\n"] (0.0000)
Executing on file with codename '027' ["Wrong Output Format\n"] (0.0000)
Executing on file with codename '026' ["Wrong Output Format\n"] (0.0000)
Executing on file with codename '025' ["Wrong Output Format\n"] (0.0000)
Executing on file with codename '023' ["Wrong Output Format\n"] (0.0000)
Executing on file with codename '022' ["Wrong Output Format\n"] (0.0000)
Executing on file with codename '024' ["Execution killed with signal 11 (could be triggered by violating memory limits)"] (0.0000)
Executing on file with codename '021' ["Execution killed with signal 11 (could be triggered by violating memory limits)"] (0.0000)
Executing on file with codename '020' ["Execution killed with signal 11 (could be triggered by violating memory limits)"] (0.0000)
Executing on file with codename '019' ["OK\n"] (1.0000)
Executing on file with codename '018' ["OK\n"] (1.0000)
Executing on file with codename '017' ["OK\n"] (1.0000)
Executing on file with codename '016' ["OK\n"] (1.0000)
Executing on file with codename '015' ["OK\n"] (1.0000)
Executing on file with codename '003' ["OK\n"] (1.0000)
Executing on file with codename '004' ["OK\n"] (1.0000)
Executing on file with codename '002' ["OK\n"] (1.0000)
Executing on file with codename '001' ["OK\n"] (1.0000)
Executing on file with codename '014' ["OK\n"] (1.0000)
Executing on file with codename '000' ["OK\n"] (1.0000)
Executing on file with codename '013' ["OK\n"] (1.0000)
Executing on file with codename '012' ["OK\n"] (1.0000)
Executing on file with codename '011' ["OK\n"] (1.0000)
Executing on file with codename '010' ["OK\n"] (1.0000)
Executing on file with codename '009' ["OK\n"] (1.0000)
Executing on file with codename '008' ["OK\n"] (1.0000)
Executing on file with codename '007' ["OK\n"] (1.0000)
Executing on file with codename '006' ["OK\n"] (1.0000)
Executing on file with codename '005' ["OK\n"] (1.0000)
Score: 20.000000
