Executing on file with codename '017' ["Execution killed with signal 11 (could be triggered by violating memory limits)"] (0.0000)
Executing on file with codename '020' ["Execution killed with signal 11 (could be triggered by violating memory limits)"] (0.0000)
Executing on file with codename '019' ["Execution killed with signal 11 (could be triggered by violating memory limits)"] (0.0000)
Executing on file with codename '006' ["Wrong Answer\n"] (0.0000)
Executing on file with codename '001' ["Wrong Answer\n"] (0.0000)
Executing on file with codename '004' ["Wrong Answer\n"] (0.0000)
Executing on file with codename '003' ["OK\n"] (1.0000)
Executing on file with codename '000' ["OK\n"] (1.0000)
Executing on file with codename '002' ["Wrong Answer\n"] (0.0000)
Executing on file with codename '018' ["Execution killed with signal 11 (could be triggered by violating memory limits)"] (0.0000)
Executing on file with codename '016' ["Execution killed with signal 11 (could be triggered by violating memory limits)"] (0.0000)
Executing on file with codename '015' ["Execution killed with signal 11 (could be triggered by violating memory limits)"] (0.0000)
Executing on file with codename '014' ["Execution killed with signal 11 (could be triggered by violating memory limits)"] (0.0000)
Executing on file with codename '013' ["Execution killed with signal 11 (could be triggered by violating memory limits)"] (0.0000)
Executing on file with codename '012' ["Execution killed with signal 11 (could be triggered by violating memory limits)"] (0.0000)
Executing on file with codename '011' ["Execution killed with signal 11 (could be triggered by violating memory limits)"] (0.0000)
Executing on file with codename '010' ["Wrong Answer\n"] (0.0000)
Executing on file with codename '009' ["Wrong Answer\n"] (0.0000)
Executing on file with codename '008' ["Wrong Answer\n"] (0.0000)
Executing on file with codename '007' ["Execution killed with signal 11 (could be triggered by violating memory limits)"] (0.0000)
Executing on file with codename '005' ["Wrong Answer\n"] (0.0000)
Score: 2.000000
