Executing on file with codename '031' ["Execution timed out"] (0.0000)
Executing on file with codename '039' ["Execution killed with signal 8 (could be triggered by violating memory limits)"] (0.0000)
Executing on file with codename '038' ["Execution killed with signal 8 (could be triggered by violating memory limits)"] (0.0000)
Executing on file with codename '037' ["Wrong Answer\n"] (0.0000)
Executing on file with codename '036' ["Execution killed with signal 8 (could be triggered by violating memory limits)"] (0.0000)
Executing on file with codename '034' ["Execution killed with signal 8 (could be triggered by violating memory limits)"] (0.0000)
Executing on file with codename '035' ["Execution killed with signal 8 (could be triggered by violating memory limits)"] (0.0000)
Executing on file with codename '025' ["Execution timed out"] (0.0000)
Executing on file with codename '033' ["Wrong Answer\n"] (0.0000)
Executing on file with codename '032' ["Execution killed with signal 8 (could be triggered by violating memory limits)"] (0.0000)
Executing on file with codename '024' ["Execution timed out"] (0.0000)
Executing on file with codename '030' ["OK\n"] (1.0000)
Executing on file with codename '022' ["Execution timed out"] (0.0000)
Executing on file with codename '021' ["Execution timed out"] (0.0000)
Executing on file with codename '029' ["Wrong Answer\n"] (0.0000)
Executing on file with codename '020' ["Execution timed out"] (0.0000)
Executing on file with codename '028' ["Wrong Answer\n"] (0.0000)
Executing on file with codename '027' ["Execution killed with signal 8 (could be triggered by violating memory limits)"] (0.0000)
Executing on file with codename '007' ["Execution timed out"] (0.0000)
Executing on file with codename '026' ["Execution killed with signal 8 (could be triggered by violating memory limits)"] (0.0000)
Executing on file with codename '023' ["Wrong Answer\n"] (0.0000)
Executing on file with codename '019' ["Wrong Answer\n"] (0.0000)
Executing on file with codename '018' ["Wrong Answer\n"] (0.0000)
Executing on file with codename '017' ["Execution killed with signal 8 (could be triggered by violating memory limits)"] (0.0000)
Executing on file with codename '016' ["Execution killed with signal 8 (could be triggered by violating memory limits)"] (0.0000)
Executing on file with codename '015' ["Execution killed with signal 8 (could be triggered by violating memory limits)"] (0.0000)
Executing on file with codename '014' ["Execution killed with signal 8 (could be triggered by violating memory limits)"] (0.0000)
Executing on file with codename '006' ["Wrong Answer\n"] (0.0000)
Executing on file with codename '004' ["Wrong Answer\n"] (0.0000)
Executing on file with codename '013' ["OK\n"] (1.0000)
Executing on file with codename '003' ["Wrong Answer\n"] (0.0000)
Executing on file with codename '002' ["Wrong Answer\n"] (0.0000)
Executing on file with codename '012' ["Execution killed with signal 8 (could be triggered by violating memory limits)"] (0.0000)
Executing on file with codename '011' ["Wrong Answer\n"] (0.0000)
Executing on file with codename '010' ["Wrong Answer\n"] (0.0000)
Executing on file with codename '009' ["Wrong Answer\n"] (0.0000)
Executing on file with codename '005' ["Execution timed out"] (0.0000)
Executing on file with codename '001' ["Wrong Answer\n"] (0.0000)
Executing on file with codename '008' ["OK\n"] (1.0000)
Executing on file with codename '000' ["Wrong Answer\n"] (0.0000)
Score: 3.000000
