Executing on file with codename '039' ["Execution killed with signal 8 (could be triggered by violating memory limits)"] (0.0000)
Executing on file with codename '038' ["Execution killed with signal 8 (could be triggered by violating memory limits)"] (0.0000)
Executing on file with codename '037' ["Execution killed with signal 8 (could be triggered by violating memory limits)"] (0.0000)
Executing on file with codename '036' ["Execution killed with signal 8 (could be triggered by violating memory limits)"] (0.0000)
Executing on file with codename '035' ["Execution killed with signal 8 (could be triggered by violating memory limits)"] (0.0000)
Executing on file with codename '034' ["Execution killed with signal 8 (could be triggered by violating memory limits)"] (0.0000)
Executing on file with codename '033' ["Execution killed with signal 8 (could be triggered by violating memory limits)"] (0.0000)
Executing on file with codename '032' ["Execution killed with signal 8 (could be triggered by violating memory limits)"] (0.0000)
Executing on file with codename '031' ["Wrong Output Format\n"] (0.0000)
Executing on file with codename '030' ["Execution killed with signal 8 (could be triggered by violating memory limits)"] (0.0000)
Executing on file with codename '029' ["Wrong Answer\n"] (0.0000)
Executing on file with codename '028' ["Wrong Answer\n"] (0.0000)
Executing on file with codename '027' ["Wrong Answer\n"] (0.0000)
Executing on file with codename '026' ["Wrong Answer\n"] (0.0000)
Executing on file with codename '025' ["Execution killed with signal 8 (could be triggered by violating memory limits)"] (0.0000)
Executing on file with codename '024' ["Execution killed with signal 8 (could be triggered by violating memory limits)"] (0.0000)
Executing on file with codename '023' ["Wrong Answer\n"] (0.0000)
Executing on file with codename '020' ["OK\n"] (1.0000)
Executing on file with codename '021' ["OK\n"] (1.0000)
Executing on file with codename '022' ["OK\n"] (1.0000)
Executing on file with codename '005' ["Execution killed with signal 8 (could be triggered by violating memory limits)"] (0.0000)
Executing on file with codename '004' ["Execution killed with signal 8 (could be triggered by violating memory limits)"] (0.0000)
Executing on file with codename '003' ["Execution killed with signal 8 (could be triggered by violating memory limits)"] (0.0000)
Executing on file with codename '002' ["Execution killed with signal 8 (could be triggered by violating memory limits)"] (0.0000)
Executing on file with codename '006' ["OK\n"] (1.0000)
Executing on file with codename '019' ["Wrong Answer\n"] (0.0000)
Executing on file with codename '018' ["Wrong Answer\n"] (0.0000)
Executing on file with codename '000' ["OK\n"] (1.0000)
Executing on file with codename '017' ["Wrong Answer\n"] (0.0000)
Executing on file with codename '016' ["Wrong Answer\n"] (0.0000)
Executing on file with codename '015' ["Wrong Answer\n"] (0.0000)
Executing on file with codename '014' ["Wrong Answer\n"] (0.0000)
Executing on file with codename '013' ["Wrong Answer\n"] (0.0000)
Executing on file with codename '012' ["Wrong Answer\n"] (0.0000)
Executing on file with codename '011' ["Wrong Answer\n"] (0.0000)
Executing on file with codename '010' ["Wrong Answer\n"] (0.0000)
Executing on file with codename '009' ["Execution killed with signal 8 (could be triggered by violating memory limits)"] (0.0000)
Executing on file with codename '008' ["OK\n"] (1.0000)
Executing on file with codename '007' ["Execution killed with signal 8 (could be triggered by violating memory limits)"] (0.0000)
Executing on file with codename '001' ["OK\n"] (1.0000)
Score: 7.000000
