Executing on file with codename '038' ["Execution timed out"] (0.0000)
Executing on file with codename '039' ["OK\n"] (1.0000)
Executing on file with codename '032' ["Execution timed out"] (0.0000)
Executing on file with codename '030' ["Execution timed out"] (0.0000)
Executing on file with codename '028' ["Execution timed out"] (0.0000)
Executing on file with codename '026' ["Execution timed out"] (0.0000)
Executing on file with codename '025' ["Execution timed out"] (0.0000)
Executing on file with codename '037' ["Wrong Answer\n"] (0.0000)
Executing on file with codename '036' ["OK\n"] (1.0000)
Executing on file with codename '035' ["Wrong Answer\n"] (0.0000)
Executing on file with codename '027' ["Execution timed out"] (0.0000)
Executing on file with codename '034' ["Wrong Answer\n"] (0.0000)
Executing on file with codename '033' ["Wrong Answer\n"] (0.0000)
Executing on file with codename '031' ["Wrong Answer\n"] (0.0000)
Executing on file with codename '029' ["OK\n"] (1.0000)
Executing on file with codename '023' ["Wrong Answer\n"] (0.0000)
Executing on file with codename '024' ["OK\n"] (1.0000)
Executing on file with codename '022' ["Wrong Answer\n"] (0.0000)
Executing on file with codename '021' ["Wrong Answer\n"] (0.0000)
Executing on file with codename '020' ["Wrong Answer\n"] (0.0000)
Executing on file with codename '019' ["OK\n"] (1.0000)
Executing on file with codename '007' ["Execution timed out"] (0.0000)
Executing on file with codename '018' ["OK\n"] (1.0000)
Executing on file with codename '017' ["OK\n"] (1.0000)
Executing on file with codename '016' ["OK\n"] (1.0000)
Executing on file with codename '015' ["OK\n"] (1.0000)
Executing on file with codename '014' ["OK\n"] (1.0000)
Executing on file with codename '013' ["Wrong Answer\n"] (0.0000)
Executing on file with codename '012' ["Wrong Answer\n"] (0.0000)
Executing on file with codename '011' ["Wrong Answer\n"] (0.0000)
Executing on file with codename '009' ["Wrong Answer\n"] (0.0000)
Executing on file with codename '010' ["OK\n"] (1.0000)
Executing on file with codename '006' ["Wrong Answer\n"] (0.0000)
Executing on file with codename '004' ["Wrong Answer\n"] (0.0000)
Executing on file with codename '002' ["OK\n"] (1.0000)
Executing on file with codename '008' ["OK\n"] (1.0000)
Executing on file with codename '003' ["OK\n"] (1.0000)
Executing on file with codename '001' ["OK\n"] (1.0000)
Executing on file with codename '000' ["OK\n"] (1.0000)
Executing on file with codename '005' ["Execution timed out"] (0.0000)
Score: 16.000000
