Executing on file with codename '036' ["Execution timed out"] (0.0000)
Executing on file with codename '034' ["Execution timed out"] (0.0000)
Executing on file with codename '033' ["Execution timed out"] (0.0000)
Executing on file with codename '031' ["Execution timed out"] (0.0000)
Executing on file with codename '030' ["Execution timed out"] (0.0000)
Executing on file with codename '032' ["Execution timed out"] (0.0000)
Executing on file with codename '039' ["Wrong Answer\n"] (0.0000)
Executing on file with codename '038' ["Wrong Answer\n"] (0.0000)
Executing on file with codename '037' ["Wrong Answer\n"] (0.0000)
Executing on file with codename '035' ["Wrong Answer\n"] (0.0000)
Executing on file with codename '029' ["Wrong Answer\n"] (0.0000)
Executing on file with codename '028' ["Execution killed with signal 11 (could be triggered by violating memory limits)"] (0.0000)
Executing on file with codename '027' ["Wrong Answer\n"] (0.0000)
Executing on file with codename '026' ["Wrong Answer\n"] (0.0000)
Executing on file with codename '025' ["Execution killed with signal 11 (could be triggered by violating memory limits)"] (0.0000)
Executing on file with codename '024' ["Execution killed with signal 11 (could be triggered by violating memory limits)"] (0.0000)
Executing on file with codename '023' ["Execution killed with signal 11 (could be triggered by violating memory limits)"] (0.0000)
Executing on file with codename '004' ["Execution killed with signal 11 (could be triggered by violating memory limits)"] (0.0000)
Executing on file with codename '005' ["Execution killed with signal 11 (could be triggered by violating memory limits)"] (0.0000)
Executing on file with codename '022' ["Execution killed with signal 11 (could be triggered by violating memory limits)"] (0.0000)
Executing on file with codename '002' ["Execution killed with signal 11 (could be triggered by violating memory limits)"] (0.0000)
Executing on file with codename '007' ["Wrong Answer\n"] (0.0000)
Executing on file with codename '021' ["Wrong Answer\n"] (0.0000)
Executing on file with codename '003' ["Wrong Answer\n"] (0.0000)
Executing on file with codename '020' ["Wrong Answer\n"] (0.0000)
Executing on file with codename '001' ["OK\n"] (1.0000)
Executing on file with codename '000' ["Wrong Answer\n"] (0.0000)
Executing on file with codename '019' ["Wrong Answer\n"] (0.0000)
Executing on file with codename '018' ["Wrong Answer\n"] (0.0000)
Executing on file with codename '017' ["Wrong Answer\n"] (0.0000)
Executing on file with codename '016' ["Wrong Answer\n"] (0.0000)
Executing on file with codename '015' ["Wrong Answer\n"] (0.0000)
Executing on file with codename '014' ["Execution killed with signal 11 (could be triggered by violating memory limits)"] (0.0000)
Executing on file with codename '013' ["Execution killed with signal 11 (could be triggered by violating memory limits)"] (0.0000)
Executing on file with codename '012' ["Wrong Answer\n"] (0.0000)
Executing on file with codename '011' ["Wrong Answer\n"] (0.0000)
Executing on file with codename '010' ["Wrong Answer\n"] (0.0000)
Executing on file with codename '009' ["Execution killed with signal 11 (could be triggered by violating memory limits)"] (0.0000)
Executing on file with codename '008' ["Wrong Answer\n"] (0.0000)
Executing on file with codename '006' ["Wrong Answer\n"] (0.0000)
Score: 1.000000
