Executing on file with codename '039' ["OK\n"] (1.0000)
Executing on file with codename '038' ["OK\n"] (1.0000)
Executing on file with codename '037' ["OK\n"] (1.0000)
Executing on file with codename '036' ["OK\n"] (1.0000)
Executing on file with codename '035' ["OK\n"] (1.0000)
Executing on file with codename '034' ["OK\n"] (1.0000)
Executing on file with codename '033' ["Wrong Answer\n"] (0.0000)
Executing on file with codename '032' ["OK\n"] (1.0000)
Executing on file with codename '031' ["Wrong Answer\n"] (0.0000)
Executing on file with codename '030' ["OK\n"] (1.0000)
Executing on file with codename '029' ["OK\n"] (1.0000)
Executing on file with codename '028' ["OK\n"] (1.0000)
Executing on file with codename '027' ["OK\n"] (1.0000)
Executing on file with codename '026' ["OK\n"] (1.0000)
Executing on file with codename '025' ["Execution killed with signal 8 (could be triggered by violating memory limits)"] (0.0000)
Executing on file with codename '024' ["Execution killed with signal 8 (could be triggered by violating memory limits)"] (0.0000)
Executing on file with codename '023' ["Execution killed with signal 8 (could be triggered by violating memory limits)"] (0.0000)
Executing on file with codename '022' ["Execution killed with signal 8 (could be triggered by violating memory limits)"] (0.0000)
Executing on file with codename '021' ["Execution killed with signal 8 (could be triggered by violating memory limits)"] (0.0000)
Executing on file with codename '020' ["Execution killed with signal 8 (could be triggered by violating memory limits)"] (0.0000)
Executing on file with codename '007' ["Execution killed with signal 8 (could be triggered by violating memory limits)"] (0.0000)
Executing on file with codename '003' ["OK\n"] (1.0000)
Executing on file with codename '019' ["OK\n"] (1.0000)
Executing on file with codename '018' ["OK\n"] (1.0000)
Executing on file with codename '002' ["OK\n"] (1.0000)
Executing on file with codename '005' ["Execution killed with signal 8 (could be triggered by violating memory limits)"] (0.0000)
Executing on file with codename '017' ["OK\n"] (1.0000)
Executing on file with codename '004' ["Wrong Answer\n"] (0.0000)
Executing on file with codename '016' ["Wrong Answer\n"] (0.0000)
Executing on file with codename '015' ["Wrong Answer\n"] (0.0000)
Executing on file with codename '001' ["OK\n"] (1.0000)
Executing on file with codename '000' ["OK\n"] (1.0000)
Executing on file with codename '014' ["Wrong Answer\n"] (0.0000)
Executing on file with codename '013' ["Wrong Answer\n"] (0.0000)
Executing on file with codename '012' ["Wrong Answer\n"] (0.0000)
Executing on file with codename '011' ["Wrong Answer\n"] (0.0000)
Executing on file with codename '010' ["Wrong Answer\n"] (0.0000)
Executing on file with codename '009' ["Wrong Answer\n"] (0.0000)
Executing on file with codename '008' ["OK\n"] (1.0000)
Executing on file with codename '006' ["OK\n"] (1.0000)
Score: 21.000000
