Executing on file with codename '000' ["OK\n"] (1.0000)
Executing on file with codename '001' ["Wrong Answer\n"] (0.0000)
Executing on file with codename '002' ["OK\n"] (1.0000)
Executing on file with codename '003' ["OK\n"] (1.0000)
Executing on file with codename '004' ["OK\n"] (1.0000)
Executing on file with codename '005' ["Wrong Answer\n"] (0.0000)
Executing on file with codename '006' ["Wrong Answer\n"] (0.0000)
Executing on file with codename '007' ["OK\n"] (1.0000)
Executing on file with codename '008' ["OK\n"] (1.0000)
Executing on file with codename '009' ["Wrong Answer\n"] (0.0000)
Executing on file with codename '010' ["Wrong Answer\n"] (0.0000)
Executing on file with codename '011' ["Wrong Answer\n"] (0.0000)
Executing on file with codename '012' ["Wrong Answer\n"] (0.0000)
Executing on file with codename '013' ["OK\n"] (1.0000)
Executing on file with codename '014' ["Wrong Answer\n"] (0.0000)
Executing on file with codename '015' ["OK\n"] (1.0000)
Executing on file with codename '016' ["OK\n"] (1.0000)
Executing on file with codename '017' ["OK\n"] (1.0000)
Executing on file with codename '019' ["Wrong Answer\n"] (0.0000)
Executing on file with codename '018' ["OK\n"] (1.0000)
Executing on file with codename '020' ["Wrong Answer\n"] (0.0000)
Executing on file with codename '021' ["OK\n"] (1.0000)
Executing on file with codename '022' ["OK\n"] (1.0000)
Executing on file with codename '023' ["OK\n"] (1.0000)
Executing on file with codename '024' ["OK\n"] (1.0000)
Executing on file with codename '025' ["Wrong Answer\n"] (0.0000)
Executing on file with codename '026' ["OK\n"] (1.0000)
Executing on file with codename '027' ["OK\n"] (1.0000)
Executing on file with codename '029' ["Wrong Answer\n"] (0.0000)
Executing on file with codename '028' ["OK\n"] (1.0000)
Executing on file with codename '031' ["OK\n"] (1.0000)
Executing on file with codename '030' ["Wrong Answer\n"] (0.0000)
Executing on file with codename '032' ["OK\n"] (1.0000)
Executing on file with codename '034' ["Wrong Answer\n"] (0.0000)
Executing on file with codename '033' ["OK\n"] (1.0000)
Executing on file with codename '053' ["OK\n"] (1.0000)
Executing on file with codename '055' ["Wrong Answer\n"] (0.0000)
Executing on file with codename '054' ["Wrong Answer\n"] (0.0000)
Executing on file with codename '035' ["Wrong Answer\n"] (0.0000)
Executing on file with codename '036' ["Wrong Answer\n"] (0.0000)
Executing on file with codename '056' ["Wrong Answer\n"] (0.0000)
Executing on file with codename '037' ["Wrong Answer\n"] (0.0000)
Executing on file with codename '038' ["Wrong Answer\n"] (0.0000)
Executing on file with codename '057' ["Wrong Answer\n"] (0.0000)
Executing on file with codename '058' ["Wrong Answer\n"] (0.0000)
Executing on file with codename '039' ["Wrong Answer\n"] (0.0000)
Executing on file with codename '040' ["Wrong Answer\n"] (0.0000)
Executing on file with codename '041' ["Wrong Answer\n"] (0.0000)
Executing on file with codename '042' ["Wrong Answer\n"] (0.0000)
Executing on file with codename '043' ["Wrong Answer\n"] (0.0000)
Executing on file with codename '044' ["Wrong Answer\n"] (0.0000)
Executing on file with codename '045' ["Wrong Answer\n"] (0.0000)
Executing on file with codename '046' ["OK\n"] (1.0000)
Executing on file with codename '047' ["Wrong Answer\n"] (0.0000)
Executing on file with codename '048' ["Wrong Answer\n"] (0.0000)
Executing on file with codename '049' ["Wrong Answer\n"] (0.0000)
Executing on file with codename '050' ["Wrong Answer\n"] (0.0000)
Executing on file with codename '059' ["Wrong Answer\n"] (0.0000)
Executing on file with codename '051' ["OK\n"] (1.0000)
Executing on file with codename '052' ["Wrong Answer\n"] (0.0000)
Score: 24.000000
