Executing on file with codename '029' ["Execution timed out"] (0.0000)
Executing on file with codename '028' ["Execution timed out"] (0.0000)
Executing on file with codename '027' ["Execution timed out"] (0.0000)
Executing on file with codename '026' ["Execution timed out"] (0.0000)
Executing on file with codename '039' ["Execution failed because the return code was nonzero"] (0.0000)
Executing on file with codename '019' ["Execution timed out"] (0.0000)
Executing on file with codename '018' ["Execution timed out"] (0.0000)
Executing on file with codename '017' ["Execution timed out"] (0.0000)
Executing on file with codename '038' ["Execution failed because the return code was nonzero"] (0.0000)
Executing on file with codename '037' ["Execution failed because the return code was nonzero"] (0.0000)
Executing on file with codename '036' ["Execution failed because the return code was nonzero"] (0.0000)
Executing on file with codename '035' ["Execution failed because the return code was nonzero"] (0.0000)
Executing on file with codename '034' ["Execution failed because the return code was nonzero"] (0.0000)
Executing on file with codename '033' ["Execution failed because the return code was nonzero"] (0.0000)
Executing on file with codename '032' ["Execution failed because the return code was nonzero"] (0.0000)
Executing on file with codename '031' ["Execution failed because the return code was nonzero"] (0.0000)
Executing on file with codename '030' ["Execution failed because the return code was nonzero"] (0.0000)
Executing on file with codename '023' ["OK\n"] (1.0000)
Executing on file with codename '025' ["Execution failed because the return code was nonzero"] (0.0000)
Executing on file with codename '022' ["OK\n"] (1.0000)
Executing on file with codename '021' ["OK\n"] (1.0000)
Executing on file with codename '024' ["Execution failed because the return code was nonzero"] (0.0000)
Executing on file with codename '020' ["OK\n"] (1.0000)
Executing on file with codename '016' ["OK\n"] (1.0000)
Executing on file with codename '015' ["OK\n"] (1.0000)
Executing on file with codename '014' ["OK\n"] (1.0000)
Executing on file with codename '012' ["OK\n"] (1.0000)
Executing on file with codename '013' ["OK\n"] (1.0000)
Executing on file with codename '011' ["OK\n"] (1.0000)
Executing on file with codename '006' ["OK\n"] (1.0000)
Executing on file with codename '010' ["OK\n"] (1.0000)
Executing on file with codename '007' ["Execution failed because the return code was nonzero"] (0.0000)
Executing on file with codename '005' ["Execution failed because the return code was nonzero"] (0.0000)
Executing on file with codename '004' ["Execution failed because the return code was nonzero"] (0.0000)
Executing on file with codename '003' ["Execution failed because the return code was nonzero"] (0.0000)
Executing on file with codename '009' ["Execution failed because the return code was nonzero"] (0.0000)
Executing on file with codename '001' ["OK\n"] (1.0000)
Executing on file with codename '000' ["OK\n"] (1.0000)
Executing on file with codename '008' ["OK\n"] (1.0000)
Executing on file with codename '002' ["Execution failed because the return code was nonzero"] (0.0000)
Score: 15.000000
