Executing on file with codename '020' ["Execution failed because the return code was nonzero"] (0.0000)
Executing on file with codename '019' ["Execution failed because the return code was nonzero"] (0.0000)
Executing on file with codename '018' ["Execution failed because the return code was nonzero"] (0.0000)
Executing on file with codename '017' ["Execution failed because the return code was nonzero"] (0.0000)
Executing on file with codename '016' ["Execution failed because the return code was nonzero"] (0.0000)
Executing on file with codename '015' ["Execution failed because the return code was nonzero"] (0.0000)
Executing on file with codename '013' ["Execution failed because the return code was nonzero"] (0.0000)
Executing on file with codename '014' ["Execution failed because the return code was nonzero"] (0.0000)
Executing on file with codename '012' ["Execution failed because the return code was nonzero"] (0.0000)
Executing on file with codename '011' ["Execution failed because the return code was nonzero"] (0.0000)
Executing on file with codename '010' ["Wrong Answer\n"] (0.0000)
Executing on file with codename '009' ["OK\n"] (1.0000)
Executing on file with codename '007' ["OK\n"] (1.0000)
Executing on file with codename '008' ["OK\n"] (1.0000)
Executing on file with codename '006' ["Wrong Answer\n"] (0.0000)
Executing on file with codename '004' ["Wrong Answer\n"] (0.0000)
Executing on file with codename '003' ["Wrong Answer\n"] (0.0000)
Executing on file with codename '002' ["Wrong Answer\n"] (0.0000)
Executing on file with codename '005' ["OK\n"] (1.0000)
Executing on file with codename '001' ["Wrong Answer\n"] (0.0000)
Executing on file with codename '000' ["OK\n"] (1.0000)
Score: 5.000000
