Executing on file with codename '020' ["Execution timed out"] (0.0000)
Executing on file with codename '019' ["Execution timed out"] (0.0000)
Executing on file with codename '018' ["Execution timed out"] (0.0000)
Executing on file with codename '017' ["Execution timed out"] (0.0000)
Executing on file with codename '016' ["Execution timed out"] (0.0000)
Executing on file with codename '015' ["Execution timed out"] (0.0000)
Executing on file with codename '014' ["Execution timed out"] (0.0000)
Executing on file with codename '013' ["Execution timed out"] (0.0000)
Executing on file with codename '012' ["Execution timed out"] (0.0000)
Executing on file with codename '011' ["Execution timed out"] (0.0000)
Executing on file with codename '010' ["OK\n"] (1.0000)
Executing on file with codename '009' ["OK\n"] (1.0000)
Executing on file with codename '002' ["OK\n"] (1.0000)
Executing on file with codename '008' ["OK\n"] (1.0000)
Executing on file with codename '001' ["OK\n"] (1.0000)
Executing on file with codename '000' ["OK\n"] (1.0000)
Executing on file with codename '007' ["OK\n"] (1.0000)
Executing on file with codename '006' ["OK\n"] (1.0000)
Executing on file with codename '005' ["OK\n"] (1.0000)
Executing on file with codename '004' ["OK\n"] (1.0000)
Executing on file with codename '003' ["OK\n"] (1.0000)
Score: 11.000000
