Executing on file with codename '024' ["Execution timed out"] (0.0000)
Executing on file with codename '023' ["Execution timed out"] (0.0000)
Executing on file with codename '022' ["Execution timed out"] (0.0000)
Executing on file with codename '021' ["Execution timed out"] (0.0000)
Executing on file with codename '020' ["Execution timed out"] (0.0000)
Executing on file with codename '019' ["Execution timed out"] (0.0000)
Executing on file with codename '018' ["Execution timed out"] (0.0000)
Executing on file with codename '017' ["Execution timed out"] (0.0000)
Executing on file with codename '016' ["Execution timed out"] (0.0000)
Executing on file with codename '015' ["Execution timed out"] (0.0000)
Executing on file with codename '014' ["Execution timed out"] (0.0000)
Executing on file with codename '013' ["Execution timed out"] (0.0000)
Executing on file with codename '012' ["Execution timed out"] (0.0000)
Executing on file with codename '011' ["Execution timed out"] (0.0000)
Executing on file with codename '010' ["Execution timed out"] (0.0000)
Executing on file with codename '009' ["Execution timed out"] (0.0000)
Executing on file with codename '008' ["Execution timed out"] (0.0000)
Executing on file with codename '004' ["Execution timed out"] (0.0000)
Executing on file with codename '005' ["Execution timed out"] (0.0000)
Executing on file with codename '007' ["Execution timed out"] (0.0000)
Executing on file with codename '003' ["OK\n"] (1.0000)
Executing on file with codename '000' ["Wrong Answer\n"] (0.0000)
Executing on file with codename '001' ["OK\n"] (1.0000)
Executing on file with codename '006' ["Execution timed out"] (0.0000)
Executing on file with codename '002' ["OK\n"] (1.0000)
Score: 3.000000
