Executing on file with codename '032' ["Execution killed with signal 11 (could be triggered by violating memory limits)"] (0.0000)
Executing on file with codename '037' ["Execution killed with signal 11 (could be triggered by violating memory limits)"] (0.0000)
Executing on file with codename '039' ["Execution killed with signal 11 (could be triggered by violating memory limits)"] (0.0000)
Executing on file with codename '038' ["Execution killed with signal 11 (could be triggered by violating memory limits)"] (0.0000)
Executing on file with codename '036' ["Execution killed with signal 11 (could be triggered by violating memory limits)"] (0.0000)
Executing on file with codename '035' ["Execution killed with signal 11 (could be triggered by violating memory limits)"] (0.0000)
Executing on file with codename '034' ["Execution killed with signal 11 (could be triggered by violating memory limits)"] (0.0000)
Executing on file with codename '033' ["Execution killed with signal 11 (could be triggered by violating memory limits)"] (0.0000)
Executing on file with codename '031' ["Execution killed with signal 11 (could be triggered by violating memory limits)"] (0.0000)
Executing on file with codename '030' ["Execution killed with signal 11 (could be triggered by violating memory limits)"] (0.0000)
Executing on file with codename '029' ["Execution killed with signal 11 (could be triggered by violating memory limits)"] (0.0000)
Executing on file with codename '028' ["Execution killed with signal 11 (could be triggered by violating memory limits)"] (0.0000)
Executing on file with codename '027' ["Execution killed with signal 11 (could be triggered by violating memory limits)"] (0.0000)
Executing on file with codename '026' ["Execution killed with signal 11 (could be triggered by violating memory limits)"] (0.0000)
Executing on file with codename '025' ["Execution killed with signal 11 (could be triggered by violating memory limits)"] (0.0000)
Executing on file with codename '000' ["OK\n"] (1.0000)
Executing on file with codename '001' ["OK\n"] (1.0000)
Executing on file with codename '002' ["OK\n"] (1.0000)
Executing on file with codename '003' ["OK\n"] (1.0000)
Executing on file with codename '004' ["OK\n"] (1.0000)
Executing on file with codename '005' ["OK\n"] (1.0000)
Executing on file with codename '006' ["Wrong Answer\n"] (0.0000)
Executing on file with codename '007' ["OK\n"] (1.0000)
Executing on file with codename '008' ["OK\n"] (1.0000)
Executing on file with codename '021' ["Execution killed with signal 11 (could be triggered by violating memory limits)"] (0.0000)
Executing on file with codename '020' ["Execution killed with signal 11 (could be triggered by violating memory limits)"] (0.0000)
Executing on file with codename '018' ["Wrong Answer\n"] (0.0000)
Executing on file with codename '019' ["Wrong Answer\n"] (0.0000)
Executing on file with codename '017' ["Wrong Answer\n"] (0.0000)
Executing on file with codename '022' ["Execution killed with signal 11 (could be triggered by violating memory limits)"] (0.0000)
Executing on file with codename '024' ["Execution killed with signal 11 (could be triggered by violating memory limits)"] (0.0000)
Executing on file with codename '009' ["OK\n"] (1.0000)
Executing on file with codename '010' ["Wrong Answer\n"] (0.0000)
Executing on file with codename '011' ["Wrong Answer\n"] (0.0000)
Executing on file with codename '012' ["OK\n"] (1.0000)
Executing on file with codename '013' ["OK\n"] (1.0000)
Executing on file with codename '014' ["Wrong Answer\n"] (0.0000)
Executing on file with codename '015' ["Wrong Answer\n"] (0.0000)
Executing on file with codename '016' ["OK\n"] (1.0000)
Executing on file with codename '023' ["Execution killed with signal 11 (could be triggered by violating memory limits)"] (0.0000)
Score: 12.000000
