Executing on file with codename '029' ["Execution timed out"] (0.0000)
Executing on file with codename '028' ["Execution timed out"] (0.0000)
Executing on file with codename '027' ["Execution timed out"] (0.0000)
Executing on file with codename '026' ["Execution timed out"] (0.0000)
Executing on file with codename '025' ["Execution timed out"] (0.0000)
Executing on file with codename '024' ["Execution timed out"] (0.0000)
Executing on file with codename '023' ["Execution timed out"] (0.0000)
Executing on file with codename '022' ["Execution timed out"] (0.0000)
Executing on file with codename '021' ["Execution timed out"] (0.0000)
Executing on file with codename '020' ["Execution timed out"] (0.0000)
Executing on file with codename '019' ["Execution timed out"] (0.0000)
Executing on file with codename '018' ["Execution timed out"] (0.0000)
Executing on file with codename '017' ["Execution timed out"] (0.0000)
Executing on file with codename '016' ["Execution timed out"] (0.0000)
Executing on file with codename '015' ["Execution timed out"] (0.0000)
Executing on file with codename '014' ["Execution timed out"] (0.0000)
Executing on file with codename '013' ["Execution timed out"] (0.0000)
Executing on file with codename '012' ["Execution timed out"] (0.0000)
Executing on file with codename '011' ["Execution timed out"] (0.0000)
Executing on file with codename '010' ["Execution timed out"] (0.0000)
Executing on file with codename '007' ["Execution timed out"] (0.0000)
Executing on file with codename '006' ["Execution timed out"] (0.0000)
Executing on file with codename '003' ["Execution timed out"] (0.0000)
Executing on file with codename '005' ["Execution timed out"] (0.0000)
Executing on file with codename '004' ["Execution timed out"] (0.0000)
Executing on file with codename '009' ["Execution timed out"] (0.0000)
Executing on file with codename '001' ["Execution timed out"] (0.0000)
Executing on file with codename '000' ["Execution timed out"] (0.0000)
Executing on file with codename '008' ["Execution timed out"] (0.0000)
Executing on file with codename '002' ["Execution timed out"] (0.0000)
Score: 0.000000
