Executing on file with codename '059' ["Execution timed out"] (0.0000)
Executing on file with codename '058' ["Execution timed out"] (0.0000)
Executing on file with codename '057' ["Execution timed out"] (0.0000)
Executing on file with codename '056' ["Execution timed out"] (0.0000)
Executing on file with codename '055' ["Execution timed out"] (0.0000)
Executing on file with codename '054' ["Execution timed out"] (0.0000)
Executing on file with codename '053' ["Execution timed out"] (0.0000)
Executing on file with codename '052' ["Execution timed out"] (0.0000)
Executing on file with codename '051' ["Execution timed out"] (0.0000)
Executing on file with codename '050' ["Execution timed out"] (0.0000)
Executing on file with codename '049' ["Execution timed out"] (0.0000)
Executing on file with codename '048' ["Execution timed out"] (0.0000)
Executing on file with codename '047' ["Execution timed out"] (0.0000)
Executing on file with codename '046' ["Execution timed out"] (0.0000)
Executing on file with codename '045' ["Execution timed out"] (0.0000)
Executing on file with codename '044' ["Execution timed out"] (0.0000)
Executing on file with codename '043' ["Execution timed out"] (0.0000)
Executing on file with codename '042' ["Execution timed out"] (0.0000)
Executing on file with codename '040' ["Execution timed out"] (0.0000)
Executing on file with codename '041' ["Execution timed out"] (0.0000)
Executing on file with codename '037' ["Execution timed out"] (0.0000)
Executing on file with codename '039' ["Execution timed out"] (0.0000)
Executing on file with codename '038' ["Execution timed out"] (0.0000)
Executing on file with codename '036' ["Execution timed out"] (0.0000)
Executing on file with codename '035' ["Execution timed out"] (0.0000)
Executing on file with codename '034' ["Execution timed out"] (0.0000)
Executing on file with codename '033' ["Execution timed out"] (0.0000)
Executing on file with codename '032' ["Execution timed out"] (0.0000)
Executing on file with codename '031' ["Execution timed out"] (0.0000)
Executing on file with codename '029' ["Execution timed out"] (0.0000)
Executing on file with codename '030' ["Execution timed out"] (0.0000)
Executing on file with codename '028' ["Execution timed out"] (0.0000)
Executing on file with codename '027' ["Execution timed out"] (0.0000)
Executing on file with codename '026' ["Execution timed out"] (0.0000)
Executing on file with codename '025' ["Execution timed out"] (0.0000)
Executing on file with codename '024' ["Execution timed out"] (0.0000)
Executing on file with codename '021' ["Execution timed out"] (0.0000)
Executing on file with codename '022' ["Execution timed out"] (0.0000)
Executing on file with codename '023' ["Execution timed out"] (0.0000)
Executing on file with codename '020' ["Execution timed out"] (0.0000)
Executing on file with codename '019' ["Execution timed out"] (0.0000)
Executing on file with codename '018' ["Execution timed out"] (0.0000)
Executing on file with codename '017' ["Execution timed out"] (0.0000)
Executing on file with codename '016' ["Execution timed out"] (0.0000)
Executing on file with codename '014' ["Execution timed out"] (0.0000)
Executing on file with codename '015' ["Execution timed out"] (0.0000)
Executing on file with codename '011' ["Execution timed out"] (0.0000)
Executing on file with codename '012' ["Execution timed out"] (0.0000)
Executing on file with codename '013' ["Execution timed out"] (0.0000)
Executing on file with codename '010' ["Execution timed out"] (0.0000)
Executing on file with codename '007' ["Execution timed out"] (0.0000)
Executing on file with codename '006' ["Execution timed out"] (0.0000)
Executing on file with codename '004' ["Execution timed out"] (0.0000)
Executing on file with codename '005' ["Execution timed out"] (0.0000)
Executing on file with codename '003' ["Execution timed out"] (0.0000)
Executing on file with codename '009' ["Execution timed out"] (0.0000)
Executing on file with codename '002' ["Execution timed out"] (0.0000)
Executing on file with codename '001' ["Execution timed out"] (0.0000)
Executing on file with codename '008' ["Execution timed out"] (0.0000)
Executing on file with codename '000' ["Execution timed out"] (0.0000)
Score: 0.000000
