Executing on file with codename '059' ["Execution timed out"] (0.0000)
Executing on file with codename '058' ["Execution timed out"] (0.0000)
Executing on file with codename '057' ["Execution timed out"] (0.0000)
Executing on file with codename '056' ["Execution timed out"] (0.0000)
Executing on file with codename '005' ["Wrong Answer\n"] (0.0000)
Executing on file with codename '006' ["Wrong Answer\n"] (0.0000)
Executing on file with codename '000' ["Wrong Answer\n"] (0.0000)
Executing on file with codename '001' ["Wrong Answer\n"] (0.0000)
Executing on file with codename '055' ["Execution timed out"] (0.0000)
Executing on file with codename '002' ["Wrong Answer\n"] (0.0000)
Executing on file with codename '003' ["Wrong Answer\n"] (0.0000)
Executing on file with codename '004' ["Wrong Answer\n"] (0.0000)
Executing on file with codename '054' ["Execution timed out"] (0.0000)
Executing on file with codename '053' ["Execution timed out"] (0.0000)
Executing on file with codename '052' ["Execution timed out"] (0.0000)
Executing on file with codename '051' ["Wrong Answer\n"] (0.0000)
Executing on file with codename '050' ["Execution killed with signal 11 (could be triggered by violating memory limits)"] (0.0000)
Executing on file with codename '049' ["Execution killed with signal 11 (could be triggered by violating memory limits)"] (0.0000)
Executing on file with codename '048' ["Execution killed with signal 11 (could be triggered by violating memory limits)"] (0.0000)
Executing on file with codename '047' ["Wrong Answer\n"] (0.0000)
Executing on file with codename '046' ["Wrong Answer\n"] (0.0000)
Executing on file with codename '045' ["Execution killed with signal 11 (could be triggered by violating memory limits)"] (0.0000)
Executing on file with codename '044' ["Wrong Answer\n"] (0.0000)
Executing on file with codename '043' ["Wrong Answer\n"] (0.0000)
Executing on file with codename '042' ["Wrong Answer\n"] (0.0000)
Executing on file with codename '041' ["Wrong Answer\n"] (0.0000)
Executing on file with codename '040' ["Wrong Answer\n"] (0.0000)
Executing on file with codename '039' ["Wrong Answer\n"] (0.0000)
Executing on file with codename '038' ["Wrong Answer\n"] (0.0000)
Executing on file with codename '037' ["Wrong Answer\n"] (0.0000)
Executing on file with codename '036' ["Wrong Answer\n"] (0.0000)
Executing on file with codename '035' ["Wrong Answer\n"] (0.0000)
Executing on file with codename '034' ["Wrong Answer\n"] (0.0000)
Executing on file with codename '033' ["Wrong Answer\n"] (0.0000)
Executing on file with codename '032' ["Wrong Answer\n"] (0.0000)
Executing on file with codename '031' ["Wrong Answer\n"] (0.0000)
Executing on file with codename '030' ["Wrong Answer\n"] (0.0000)
Executing on file with codename '029' ["Wrong Answer\n"] (0.0000)
Executing on file with codename '028' ["Wrong Answer\n"] (0.0000)
Executing on file with codename '027' ["Wrong Answer\n"] (0.0000)
Executing on file with codename '026' ["Wrong Answer\n"] (0.0000)
Executing on file with codename '025' ["Wrong Answer\n"] (0.0000)
Executing on file with codename '024' ["Wrong Answer\n"] (0.0000)
Executing on file with codename '023' ["Wrong Answer\n"] (0.0000)
Executing on file with codename '022' ["Wrong Answer\n"] (0.0000)
Executing on file with codename '021' ["Wrong Answer\n"] (0.0000)
Executing on file with codename '020' ["Wrong Answer\n"] (0.0000)
Executing on file with codename '019' ["Wrong Answer\n"] (0.0000)
Executing on file with codename '018' ["Wrong Answer\n"] (0.0000)
Executing on file with codename '017' ["Wrong Answer\n"] (0.0000)
Executing on file with codename '016' ["Wrong Answer\n"] (0.0000)
Executing on file with codename '015' ["Wrong Answer\n"] (0.0000)
Executing on file with codename '014' ["Wrong Answer\n"] (0.0000)
Executing on file with codename '013' ["Wrong Answer\n"] (0.0000)
Executing on file with codename '012' ["Wrong Answer\n"] (0.0000)
Executing on file with codename '011' ["Wrong Answer\n"] (0.0000)
Executing on file with codename '010' ["Wrong Answer\n"] (0.0000)
Executing on file with codename '009' ["Wrong Answer\n"] (0.0000)
Executing on file with codename '008' ["Wrong Answer\n"] (0.0000)
Executing on file with codename '007' ["Wrong Answer\n"] (0.0000)
Score: 0.000000
