Executing on file with codename '039' ["Execution killed with signal 11 (could be triggered by violating memory limits)"] (0.0000)
Executing on file with codename '038' ["Execution killed with signal 11 (could be triggered by violating memory limits)"] (0.0000)
Executing on file with codename '037' ["Execution killed with signal 11 (could be triggered by violating memory limits)"] (0.0000)
Executing on file with codename '036' ["Execution killed with signal 11 (could be triggered by violating memory limits)"] (0.0000)
Executing on file with codename '035' ["Execution killed with signal 11 (could be triggered by violating memory limits)"] (0.0000)
Executing on file with codename '034' ["Execution killed with signal 11 (could be triggered by violating memory limits)"] (0.0000)
Executing on file with codename '033' ["Execution killed with signal 11 (could be triggered by violating memory limits)"] (0.0000)
Executing on file with codename '031' ["Execution killed with signal 11 (could be triggered by violating memory limits)"] (0.0000)
Executing on file with codename '032' ["Execution killed with signal 11 (could be triggered by violating memory limits)"] (0.0000)
Executing on file with codename '030' ["Execution killed with signal 11 (could be triggered by violating memory limits)"] (0.0000)
Executing on file with codename '029' ["Execution killed with signal 11 (could be triggered by violating memory limits)"] (0.0000)
Executing on file with codename '028' ["Execution killed with signal 11 (could be triggered by violating memory limits)"] (0.0000)
Executing on file with codename '027' ["Execution killed with signal 11 (could be triggered by violating memory limits)"] (0.0000)
Executing on file with codename '026' ["Execution killed with signal 11 (could be triggered by violating memory limits)"] (0.0000)
Executing on file with codename '025' ["Execution killed with signal 11 (could be triggered by violating memory limits)"] (0.0000)
Executing on file with codename '024' ["Execution killed with signal 11 (could be triggered by violating memory limits)"] (0.0000)
Executing on file with codename '023' ["Execution killed with signal 11 (could be triggered by violating memory limits)"] (0.0000)
Executing on file with codename '022' ["Execution killed with signal 11 (could be triggered by violating memory limits)"] (0.0000)
Executing on file with codename '021' ["Execution killed with signal 11 (could be triggered by violating memory limits)"] (0.0000)
Executing on file with codename '020' ["Execution killed with signal 11 (could be triggered by violating memory limits)"] (0.0000)
Executing on file with codename '018' ["Execution killed with signal 11 (could be triggered by violating memory limits)"] (0.0000)
Executing on file with codename '019' ["Execution killed with signal 11 (could be triggered by violating memory limits)"] (0.0000)
Executing on file with codename '017' ["Execution killed with signal 11 (could be triggered by violating memory limits)"] (0.0000)
Executing on file with codename '016' ["Execution killed with signal 11 (could be triggered by violating memory limits)"] (0.0000)
Executing on file with codename '005' ["Execution killed with signal 11 (could be triggered by violating memory limits)"] (0.0000)
Executing on file with codename '004' ["Execution killed with signal 11 (could be triggered by violating memory limits)"] (0.0000)
Executing on file with codename '003' ["Execution killed with signal 11 (could be triggered by violating memory limits)"] (0.0000)
Executing on file with codename '015' ["Execution killed with signal 11 (could be triggered by violating memory limits)"] (0.0000)
Executing on file with codename '001' ["Execution killed with signal 11 (could be triggered by violating memory limits)"] (0.0000)
Executing on file with codename '014' ["Execution killed with signal 11 (could be triggered by violating memory limits)"] (0.0000)
Executing on file with codename '000' ["Execution killed with signal 11 (could be triggered by violating memory limits)"] (0.0000)
Executing on file with codename '013' ["Execution killed with signal 11 (could be triggered by violating memory limits)"] (0.0000)
Executing on file with codename '012' ["Execution killed with signal 11 (could be triggered by violating memory limits)"] (0.0000)
Executing on file with codename '011' ["Execution killed with signal 11 (could be triggered by violating memory limits)"] (0.0000)
Executing on file with codename '010' ["Execution killed with signal 11 (could be triggered by violating memory limits)"] (0.0000)
Executing on file with codename '009' ["Execution killed with signal 11 (could be triggered by violating memory limits)"] (0.0000)
Executing on file with codename '008' ["Execution killed with signal 11 (could be triggered by violating memory limits)"] (0.0000)
Executing on file with codename '007' ["Execution killed with signal 11 (could be triggered by violating memory limits)"] (0.0000)
Executing on file with codename '006' ["Execution killed with signal 11 (could be triggered by violating memory limits)"] (0.0000)
Executing on file with codename '002' ["Execution killed with signal 11 (could be triggered by violating memory limits)"] (0.0000)
Score: 0.000000
