Executing on file with codename '036' ["Wrong Output Format\n"] (0.0000)
Executing on file with codename '038' ["Wrong Output Format\n"] (0.0000)
Executing on file with codename '034' ["Wrong Output Format\n"] (0.0000)
Executing on file with codename '032' ["Wrong Output Format\n"] (0.0000)
Executing on file with codename '031' ["Wrong Output Format\n"] (0.0000)
Executing on file with codename '029' ["Wrong Output Format\n"] (0.0000)
Executing on file with codename '026' ["Wrong Output Format\n"] (0.0000)
Executing on file with codename '023' ["Wrong Output Format\n"] (0.0000)
Executing on file with codename '022' ["Wrong Output Format\n"] (0.0000)
Executing on file with codename '019' ["Wrong Output Format\n"] (0.0000)
Executing on file with codename '021' ["Wrong Output Format\n"] (0.0000)
Executing on file with codename '018' ["Wrong Output Format\n"] (0.0000)
Executing on file with codename '015' ["Wrong Output Format\n"] (0.0000)
Executing on file with codename '014' ["Wrong Output Format\n"] (0.0000)
Executing on file with codename '011' ["Wrong Output Format\n"] (0.0000)
Executing on file with codename '009' ["Wrong Output Format\n"] (0.0000)
Executing on file with codename '008' ["Wrong Output Format\n"] (0.0000)
Executing on file with codename '007' ["OK\n"] (1.0000)
Executing on file with codename '004' ["Wrong Output Format\n"] (0.0000)
Executing on file with codename '003' ["Wrong Output Format\n"] (0.0000)
Executing on file with codename '002' ["Wrong Output Format\n"] (0.0000)
Executing on file with codename '000' ["Wrong Output Format\n"] (0.0000)
Executing on file with codename '030' ["Wrong Output Format\n"] (0.0000)
Executing on file with codename '028' ["Wrong Output Format\n"] (0.0000)
Executing on file with codename '013' ["Wrong Output Format\n"] (0.0000)
Executing on file with codename '006' ["Wrong Output Format\n"] (0.0000)
Executing on file with codename '037' ["Wrong Output Format\n"] (0.0000)
Executing on file with codename '033' ["Wrong Output Format\n"] (0.0000)
Executing on file with codename '024' ["Wrong Output Format\n"] (0.0000)
Executing on file with codename '020' ["Wrong Output Format\n"] (0.0000)
Executing on file with codename '016' ["Wrong Output Format\n"] (0.0000)
Executing on file with codename '005' ["OK\n"] (1.0000)
Executing on file with codename '039' ["Wrong Output Format\n"] (0.0000)
Executing on file with codename '035' ["Wrong Output Format\n"] (0.0000)
Executing on file with codename '027' ["Wrong Output Format\n"] (0.0000)
Executing on file with codename '025' ["Wrong Output Format\n"] (0.0000)
Executing on file with codename '017' ["Wrong Output Format\n"] (0.0000)
Executing on file with codename '012' ["Wrong Output Format\n"] (0.0000)
Executing on file with codename '010' ["Wrong Output Format\n"] (0.0000)
Executing on file with codename '001' ["Wrong Output Format\n"] (0.0000)
Score: 2.000000
