Executing on file with codename '018' ["Execution timed out"] (0.0000)
Executing on file with codename '017' ["Execution timed out"] (0.0000)
Executing on file with codename '021' ["Execution timed out"] (0.0000)
Executing on file with codename '023' ["Execution timed out"] (0.0000)
Executing on file with codename '016' ["Wrong Answer\n"] (0.0000)
Executing on file with codename '024' ["Execution timed out"] (0.0000)
Executing on file with codename '022' ["Execution timed out"] (0.0000)
Executing on file with codename '020' ["Wrong Answer\n"] (0.0000)
Executing on file with codename '019' ["OK\n"] (1.0000)
Executing on file with codename '015' ["Execution timed out"] (0.0000)
Executing on file with codename '013' ["Execution timed out"] (0.0000)
Executing on file with codename '014' ["Wrong Answer\n"] (0.0000)
Executing on file with codename '011' ["Wrong Answer\n"] (0.0000)
Executing on file with codename '010' ["Wrong Answer\n"] (0.0000)
Executing on file with codename '012' ["Wrong Answer\n"] (0.0000)
Executing on file with codename '003' ["Wrong Answer\n"] (0.0000)
Executing on file with codename '002' ["Wrong Answer\n"] (0.0000)
Executing on file with codename '009' ["OK\n"] (1.0000)
Executing on file with codename '000' ["Wrong Answer\n"] (0.0000)
Executing on file with codename '008' ["Wrong Answer\n"] (0.0000)
Executing on file with codename '007' ["Wrong Answer\n"] (0.0000)
Executing on file with codename '006' ["Wrong Answer\n"] (0.0000)
Executing on file with codename '005' ["Wrong Answer\n"] (0.0000)
Executing on file with codename '004' ["Wrong Answer\n"] (0.0000)
Executing on file with codename '001' ["Wrong Answer\n"] (0.0000)
Score: 2.000000
